%YAML 1.1
%TAG !u! tag:unity3d.com,2011:
--- !u!78 &1
TagManager:
  serializedVersion: 2
  tags:
  - Environment
  - stairs
  - Wall
  - Lever
  - Door
  - GroundEnemy
  - Spike
  - PlayerFeet
  - EnemyHeadChecker
  - FlyingEnemy
  - JumpingEnemy
  - Item
  - Bonfire
  - Victory
  layers:
  - Default
  - TransparentFX
  - Ignore Raycast
  - 
  - Water
  - UI
  - 
  - 
  - Player
  - Platform
  - 
  - 
  - 
  - 
  - 
  - 
  - 
  - 
  - 
  - 
  - 
  - 
  - 
  - 
  - 
  - 
  - 
  - 
  - 
  - 
  - 
  - 
  m_SortingLayers:
  - name: Default
    uniqueID: 0
    locked: 0
  - name: Background2
    uniqueID: 2149088875
    locked: 0
  - name: Background1
    uniqueID: 3816019519
    locked: 0
  - name: Level
    uniqueID: 3342508507
    locked: 0
  - name: Foreground
    uniqueID: 3430313617
    locked: 0
