%YAML 1.1
%TAG !u! tag:unity3d.com,2011:
--- !u!1 &2285368583588432590
GameObject:
  m_ObjectHideFlags: 0
  m_CorrespondingSourceObject: {fileID: 0}
  m_PrefabInstance: {fileID: 0}
  m_PrefabAsset: {fileID: 0}
  serializedVersion: 6
  m_Component:
  - component: {fileID: 6909432235095184045}
  - component: {fileID: 3566095602645507029}
  - component: {fileID: 4035712504236701876}
  m_Layer: 31
  m_Name: Layer1
  m_TagString: Untagged
  m_Icon: {fileID: 0}
  m_NavMeshLayer: 0
  m_StaticEditorFlags: 0
  m_IsActive: 1
--- !u!4 &6909432235095184045
Transform:
  m_ObjectHideFlags: 0
  m_CorrespondingSourceObject: {fileID: 0}
  m_PrefabInstance: {fileID: 0}
  m_PrefabAsset: {fileID: 0}
  m_GameObject: {fileID: 2285368583588432590}
  m_LocalRotation: {x: -0, y: -0, z: -0, w: 1}
  m_LocalPosition: {x: 0, y: 0, z: 0}
  m_LocalScale: {x: 1, y: 1, z: 1}
  m_Children: []
  m_Father: {fileID: 4834313181867413224}
  m_RootOrder: 0
  m_LocalEulerAnglesHint: {x: 0, y: 0, z: 0}
--- !u!1839735485 &3566095602645507029
Tilemap:
  m_ObjectHideFlags: 0
  m_CorrespondingSourceObject: {fileID: 0}
  m_PrefabInstance: {fileID: 0}
  m_PrefabAsset: {fileID: 0}
  m_GameObject: {fileID: 2285368583588432590}
  m_Enabled: 1
  m_Tiles:
  - first: {x: 0, y: -7, z: 0}
    second:
      serializedVersion: 2
      m_TileIndex: 21
      m_TileSpriteIndex: 21
      m_TileMatrixIndex: 0
      m_TileColorIndex: 0
      m_TileObjectToInstantiateIndex: 65535
      m_AllTileFlags: 1073741825
  - first: {x: 1, y: -7, z: 0}
    second:
      serializedVersion: 2
      m_TileIndex: 22
      m_TileSpriteIndex: 22
      m_TileMatrixIndex: 0
      m_TileColorIndex: 0
      m_TileObjectToInstantiateIndex: 65535
      m_AllTileFlags: 1073741825
  - first: {x: 2, y: -7, z: 0}
    second:
      serializedVersion: 2
      m_TileIndex: 23
      m_TileSpriteIndex: 23
      m_TileMatrixIndex: 0
      m_TileColorIndex: 0
      m_TileObjectToInstantiateIndex: 65535
      m_AllTileFlags: 1073741825
  - first: {x: 7, y: -7, z: 0}
    second:
      serializedVersion: 2
      m_TileIndex: 40
      m_TileSpriteIndex: 40
      m_TileMatrixIndex: 0
      m_TileColorIndex: 0
      m_TileObjectToInstantiateIndex: 65535
      m_AllTileFlags: 1073741825
  - first: {x: 0, y: -6, z: 0}
    second:
      serializedVersion: 2
      m_TileIndex: 18
      m_TileSpriteIndex: 18
      m_TileMatrixIndex: 0
      m_TileColorIndex: 0
      m_TileObjectToInstantiateIndex: 65535
      m_AllTileFlags: 1073741825
  - first: {x: 1, y: -6, z: 0}
    second:
      serializedVersion: 2
      m_TileIndex: 19
      m_TileSpriteIndex: 19
      m_TileMatrixIndex: 0
      m_TileColorIndex: 0
      m_TileObjectToInstantiateIndex: 65535
      m_AllTileFlags: 1073741825
  - first: {x: 2, y: -6, z: 0}
    second:
      serializedVersion: 2
      m_TileIndex: 20
      m_TileSpriteIndex: 20
      m_TileMatrixIndex: 0
      m_TileColorIndex: 0
      m_TileObjectToInstantiateIndex: 65535
      m_AllTileFlags: 1073741825
  - first: {x: 4, y: -6, z: 0}
    second:
      serializedVersion: 2
      m_TileIndex: 39
      m_TileSpriteIndex: 39
      m_TileMatrixIndex: 0
      m_TileColorIndex: 0
      m_TileObjectToInstantiateIndex: 65535
      m_AllTileFlags: 1073741825
  - first: {x: 0, y: -5, z: 0}
    second:
      serializedVersion: 2
      m_TileIndex: 15
      m_TileSpriteIndex: 15
      m_TileMatrixIndex: 0
      m_TileColorIndex: 0
      m_TileObjectToInstantiateIndex: 65535
      m_AllTileFlags: 1073741825
  - first: {x: 1, y: -5, z: 0}
    second:
      serializedVersion: 2
      m_TileIndex: 16
      m_TileSpriteIndex: 16
      m_TileMatrixIndex: 0
      m_TileColorIndex: 0
      m_TileObjectToInstantiateIndex: 65535
      m_AllTileFlags: 1073741825
  - first: {x: 2, y: -5, z: 0}
    second:
      serializedVersion: 2
      m_TileIndex: 17
      m_TileSpriteIndex: 17
      m_TileMatrixIndex: 0
      m_TileColorIndex: 0
      m_TileObjectToInstantiateIndex: 65535
      m_AllTileFlags: 1073741825
  - first: {x: 4, y: -5, z: 0}
    second:
      serializedVersion: 2
      m_TileIndex: 34
      m_TileSpriteIndex: 34
      m_TileMatrixIndex: 0
      m_TileColorIndex: 0
      m_TileObjectToInstantiateIndex: 65535
      m_AllTileFlags: 1073741825
  - first: {x: 5, y: -5, z: 0}
    second:
      serializedVersion: 2
      m_TileIndex: 35
      m_TileSpriteIndex: 35
      m_TileMatrixIndex: 0
      m_TileColorIndex: 0
      m_TileObjectToInstantiateIndex: 65535
      m_AllTileFlags: 1073741825
  - first: {x: 6, y: -5, z: 0}
    second:
      serializedVersion: 2
      m_TileIndex: 36
      m_TileSpriteIndex: 36
      m_TileMatrixIndex: 0
      m_TileColorIndex: 0
      m_TileObjectToInstantiateIndex: 65535
      m_AllTileFlags: 1073741825
  - first: {x: 7, y: -5, z: 0}
    second:
      serializedVersion: 2
      m_TileIndex: 37
      m_TileSpriteIndex: 37
      m_TileMatrixIndex: 0
      m_TileColorIndex: 0
      m_TileObjectToInstantiateIndex: 65535
      m_AllTileFlags: 1073741825
  - first: {x: 8, y: -5, z: 0}
    second:
      serializedVersion: 2
      m_TileIndex: 38
      m_TileSpriteIndex: 38
      m_TileMatrixIndex: 0
      m_TileColorIndex: 0
      m_TileObjectToInstantiateIndex: 65535
      m_AllTileFlags: 1073741825
  - first: {x: 0, y: -4, z: 0}
    second:
      serializedVersion: 2
      m_TileIndex: 12
      m_TileSpriteIndex: 12
      m_TileMatrixIndex: 0
      m_TileColorIndex: 0
      m_TileObjectToInstantiateIndex: 65535
      m_AllTileFlags: 1073741825
  - first: {x: 1, y: -4, z: 0}
    second:
      serializedVersion: 2
      m_TileIndex: 13
      m_TileSpriteIndex: 13
      m_TileMatrixIndex: 0
      m_TileColorIndex: 0
      m_TileObjectToInstantiateIndex: 65535
      m_AllTileFlags: 1073741825
  - first: {x: 2, y: -4, z: 0}
    second:
      serializedVersion: 2
      m_TileIndex: 14
      m_TileSpriteIndex: 14
      m_TileMatrixIndex: 0
      m_TileColorIndex: 0
      m_TileObjectToInstantiateIndex: 65535
      m_AllTileFlags: 1073741825
  - first: {x: 4, y: -4, z: 0}
    second:
      serializedVersion: 2
      m_TileIndex: 29
      m_TileSpriteIndex: 29
      m_TileMatrixIndex: 0
      m_TileColorIndex: 0
      m_TileObjectToInstantiateIndex: 65535
      m_AllTileFlags: 1073741825
  - first: {x: 5, y: -4, z: 0}
    second:
      serializedVersion: 2
      m_TileIndex: 30
      m_TileSpriteIndex: 30
      m_TileMatrixIndex: 0
      m_TileColorIndex: 0
      m_TileObjectToInstantiateIndex: 65535
      m_AllTileFlags: 1073741825
  - first: {x: 6, y: -4, z: 0}
    second:
      serializedVersion: 2
      m_TileIndex: 31
      m_TileSpriteIndex: 31
      m_TileMatrixIndex: 0
      m_TileColorIndex: 0
      m_TileObjectToInstantiateIndex: 65535
      m_AllTileFlags: 1073741825
  - first: {x: 7, y: -4, z: 0}
    second:
      serializedVersion: 2
      m_TileIndex: 32
      m_TileSpriteIndex: 32
      m_TileMatrixIndex: 0
      m_TileColorIndex: 0
      m_TileObjectToInstantiateIndex: 65535
      m_AllTileFlags: 1073741825
  - first: {x: 8, y: -4, z: 0}
    second:
      serializedVersion: 2
      m_TileIndex: 33
      m_TileSpriteIndex: 33
      m_TileMatrixIndex: 0
      m_TileColorIndex: 0
      m_TileObjectToInstantiateIndex: 65535
      m_AllTileFlags: 1073741825
  - first: {x: 0, y: -3, z: 0}
    second:
      serializedVersion: 2
      m_TileIndex: 9
      m_TileSpriteIndex: 9
      m_TileMatrixIndex: 0
      m_TileColorIndex: 0
      m_TileObjectToInstantiateIndex: 65535
      m_AllTileFlags: 1073741825
  - first: {x: 1, y: -3, z: 0}
    second:
      serializedVersion: 2
      m_TileIndex: 10
      m_TileSpriteIndex: 10
      m_TileMatrixIndex: 0
      m_TileColorIndex: 0
      m_TileObjectToInstantiateIndex: 65535
      m_AllTileFlags: 1073741825
  - first: {x: 2, y: -3, z: 0}
    second:
      serializedVersion: 2
      m_TileIndex: 11
      m_TileSpriteIndex: 11
      m_TileMatrixIndex: 0
      m_TileColorIndex: 0
      m_TileObjectToInstantiateIndex: 65535
      m_AllTileFlags: 1073741825
  - first: {x: 4, y: -3, z: 0}
    second:
      serializedVersion: 2
      m_TileIndex: 24
      m_TileSpriteIndex: 24
      m_TileMatrixIndex: 0
      m_TileColorIndex: 0
      m_TileObjectToInstantiateIndex: 65535
      m_AllTileFlags: 1073741825
  - first: {x: 5, y: -3, z: 0}
    second:
      serializedVersion: 2
      m_TileIndex: 25
      m_TileSpriteIndex: 25
      m_TileMatrixIndex: 0
      m_TileColorIndex: 0
      m_TileObjectToInstantiateIndex: 65535
      m_AllTileFlags: 1073741825
  - first: {x: 6, y: -3, z: 0}
    second:
      serializedVersion: 2
      m_TileIndex: 26
      m_TileSpriteIndex: 26
      m_TileMatrixIndex: 0
      m_TileColorIndex: 0
      m_TileObjectToInstantiateIndex: 65535
      m_AllTileFlags: 1073741825
  - first: {x: 7, y: -3, z: 0}
    second:
      serializedVersion: 2
      m_TileIndex: 27
      m_TileSpriteIndex: 27
      m_TileMatrixIndex: 0
      m_TileColorIndex: 0
      m_TileObjectToInstantiateIndex: 65535
      m_AllTileFlags: 1073741825
  - first: {x: 8, y: -3, z: 0}
    second:
      serializedVersion: 2
      m_TileIndex: 28
      m_TileSpriteIndex: 28
      m_TileMatrixIndex: 0
      m_TileColorIndex: 0
      m_TileObjectToInstantiateIndex: 65535
      m_AllTileFlags: 1073741825
  - first: {x: 0, y: -2, z: 0}
    second:
      serializedVersion: 2
      m_TileIndex: 6
      m_TileSpriteIndex: 6
      m_TileMatrixIndex: 0
      m_TileColorIndex: 0
      m_TileObjectToInstantiateIndex: 65535
      m_AllTileFlags: 1073741825
  - first: {x: 1, y: -2, z: 0}
    second:
      serializedVersion: 2
      m_TileIndex: 7
      m_TileSpriteIndex: 7
      m_TileMatrixIndex: 0
      m_TileColorIndex: 0
      m_TileObjectToInstantiateIndex: 65535
      m_AllTileFlags: 1073741825
  - first: {x: 2, y: -2, z: 0}
    second:
      serializedVersion: 2
      m_TileIndex: 8
      m_TileSpriteIndex: 8
      m_TileMatrixIndex: 0
      m_TileColorIndex: 0
      m_TileObjectToInstantiateIndex: 65535
      m_AllTileFlags: 1073741825
  - first: {x: 0, y: -1, z: 0}
    second:
      serializedVersion: 2
      m_TileIndex: 3
      m_TileSpriteIndex: 3
      m_TileMatrixIndex: 0
      m_TileColorIndex: 0
      m_TileObjectToInstantiateIndex: 65535
      m_AllTileFlags: 1073741825
  - first: {x: 1, y: -1, z: 0}
    second:
      serializedVersion: 2
      m_TileIndex: 4
      m_TileSpriteIndex: 4
      m_TileMatrixIndex: 0
      m_TileColorIndex: 0
      m_TileObjectToInstantiateIndex: 65535
      m_AllTileFlags: 1073741825
  - first: {x: 2, y: -1, z: 0}
    second:
      serializedVersion: 2
      m_TileIndex: 5
      m_TileSpriteIndex: 5
      m_TileMatrixIndex: 0
      m_TileColorIndex: 0
      m_TileObjectToInstantiateIndex: 65535
      m_AllTileFlags: 1073741825
  - first: {x: 0, y: 0, z: 0}
    second:
      serializedVersion: 2
      m_TileIndex: 0
      m_TileSpriteIndex: 0
      m_TileMatrixIndex: 0
      m_TileColorIndex: 0
      m_TileObjectToInstantiateIndex: 65535
      m_AllTileFlags: 1073741825
  - first: {x: 1, y: 0, z: 0}
    second:
      serializedVersion: 2
      m_TileIndex: 1
      m_TileSpriteIndex: 1
      m_TileMatrixIndex: 0
      m_TileColorIndex: 0
      m_TileObjectToInstantiateIndex: 65535
      m_AllTileFlags: 1073741825
  - first: {x: 2, y: 0, z: 0}
    second:
      serializedVersion: 2
      m_TileIndex: 2
      m_TileSpriteIndex: 2
      m_TileMatrixIndex: 0
      m_TileColorIndex: 0
      m_TileObjectToInstantiateIndex: 65535
      m_AllTileFlags: 1073741825
  m_AnimatedTiles: {}
  m_TileAssetArray:
  - m_RefCount: 1
    m_Data: {fileID: 11400000, guid: 6a722494da92cc7499bdda25dc074263, type: 2}
  - m_RefCount: 1
    m_Data: {fileID: 11400000, guid: 628e3b8f6c365bb49a664a8a55b05dc0, type: 2}
  - m_RefCount: 1
    m_Data: {fileID: 11400000, guid: cd4d29abfbafc1f46a9bcd2be4dcc564, type: 2}
  - m_RefCount: 1
    m_Data: {fileID: 11400000, guid: aab94f76a58f25c4a85bfd61a5deeb31, type: 2}
  - m_RefCount: 1
    m_Data: {fileID: 11400000, guid: d515a1b75809f414bad38a9cf91c3aa3, type: 2}
  - m_RefCount: 1
    m_Data: {fileID: 11400000, guid: bfb5eb98200d09f46b2f3af4af03dbfe, type: 2}
  - m_RefCount: 1
    m_Data: {fileID: 11400000, guid: d7a718f80748a0e489fb232211ee8cbf, type: 2}
  - m_RefCount: 1
    m_Data: {fileID: 11400000, guid: c21579696ba62f04d8fe26c55e281027, type: 2}
  - m_RefCount: 1
    m_Data: {fileID: 11400000, guid: 33428553531b7684c959bddbef2f5681, type: 2}
  - m_RefCount: 1
    m_Data: {fileID: 11400000, guid: 54911736a68d1fd44be17ae54799eb58, type: 2}
  - m_RefCount: 1
    m_Data: {fileID: 11400000, guid: f88232460800dec42b168beb0b0fbbb3, type: 2}
  - m_RefCount: 1
    m_Data: {fileID: 11400000, guid: fd63069b44d5d2642bf34d36484ac9a8, type: 2}
  - m_RefCount: 1
    m_Data: {fileID: 11400000, guid: bda73ab59b997cd4f8633eff10c2c91e, type: 2}
  - m_RefCount: 1
    m_Data: {fileID: 11400000, guid: ecdb5680d5af82340b98cf5800a64f5b, type: 2}
  - m_RefCount: 1
    m_Data: {fileID: 11400000, guid: 176884efc23051b4aaa997058f1f16f7, type: 2}
  - m_RefCount: 1
    m_Data: {fileID: 11400000, guid: 02dade33d5d669144a886591afeea75d, type: 2}
  - m_RefCount: 1
    m_Data: {fileID: 11400000, guid: 8edac4673ffaabd4c983c340868e7023, type: 2}
  - m_RefCount: 1
    m_Data: {fileID: 11400000, guid: bd07804163f3ea345a1d398fd744aa57, type: 2}
  - m_RefCount: 1
    m_Data: {fileID: 11400000, guid: b7b561d2d0b555c49bae06b1f3b0b0f6, type: 2}
  - m_RefCount: 1
    m_Data: {fileID: 11400000, guid: 133e72026acd7dc4697cbed39d91b382, type: 2}
  - m_RefCount: 1
    m_Data: {fileID: 11400000, guid: 06f6c1a51ad4dc449b406b6bc0a1c31b, type: 2}
  - m_RefCount: 1
    m_Data: {fileID: 11400000, guid: 544db2e7a213fb1408058eac8ca6074d, type: 2}
  - m_RefCount: 1
    m_Data: {fileID: 11400000, guid: 1e113e3dd5519a74690c8432758ad151, type: 2}
  - m_RefCount: 1
    m_Data: {fileID: 11400000, guid: 358b6d978df4ed1448aaea89a8d6728c, type: 2}
  - m_RefCount: 1
    m_Data: {fileID: 11400000, guid: eafe560aafeca32409f98e63a5a916e1, type: 2}
  - m_RefCount: 1
    m_Data: {fileID: 11400000, guid: e50cb2f1792ccec48ae2ecb915e666b3, type: 2}
  - m_RefCount: 1
    m_Data: {fileID: 11400000, guid: 5a2fe2ed5ce520945be6450daf23d822, type: 2}
  - m_RefCount: 1
    m_Data: {fileID: 11400000, guid: a2bd761159894474ba6b63e3919fb738, type: 2}
  - m_RefCount: 1
    m_Data: {fileID: 11400000, guid: 9227e2e5dfeef6f4199c47f604713262, type: 2}
  - m_RefCount: 1
    m_Data: {fileID: 11400000, guid: 5223281bc520f924ba7dfeabde30bf11, type: 2}
  - m_RefCount: 1
    m_Data: {fileID: 11400000, guid: 86ab9ceb9f88ae14fa384db16d94b405, type: 2}
  - m_RefCount: 1
    m_Data: {fileID: 11400000, guid: 3ddbe56e9c45b8c43800887b6256133a, type: 2}
  - m_RefCount: 1
    m_Data: {fileID: 11400000, guid: 124cceb6d78ff984483d76460a5255c4, type: 2}
  - m_RefCount: 1
    m_Data: {fileID: 11400000, guid: 547ce568b114c6440946a8cca32c90d9, type: 2}
  - m_RefCount: 1
    m_Data: {fileID: 11400000, guid: f9e20ae4aaf11b04c8da1549a518b881, type: 2}
  - m_RefCount: 1
    m_Data: {fileID: 11400000, guid: dd6da5c80260ad04ea1cb5c51c801fd9, type: 2}
  - m_RefCount: 1
    m_Data: {fileID: 11400000, guid: 9adb6b3c99e39bb4ea0ada6b848c16ec, type: 2}
  - m_RefCount: 1
    m_Data: {fileID: 11400000, guid: d9a3941885ab5104c894fbd20ff4f305, type: 2}
  - m_RefCount: 1
    m_Data: {fileID: 11400000, guid: d1969d9eb136b604687ed35cd64aa13a, type: 2}
  - m_RefCount: 1
    m_Data: {fileID: 11400000, guid: dd19c5c3d7ccce146b33c16695e9ed82, type: 2}
  - m_RefCount: 1
    m_Data: {fileID: 11400000, guid: 823598f832960654e8ea27450acf9165, type: 2}
  m_TileSpriteArray:
  - m_RefCount: 1
    m_Data: {fileID: 8509550459451208454, guid: e53e90f1155f8cd469abf4c71f6c5e95,
      type: 3}
  - m_RefCount: 1
    m_Data: {fileID: 3559705528278350927, guid: e53e90f1155f8cd469abf4c71f6c5e95,
      type: 3}
  - m_RefCount: 1
    m_Data: {fileID: -4124057691748712743, guid: e53e90f1155f8cd469abf4c71f6c5e95,
      type: 3}
  - m_RefCount: 1
    m_Data: {fileID: -7064220622572970029, guid: e53e90f1155f8cd469abf4c71f6c5e95,
      type: 3}
  - m_RefCount: 1
    m_Data: {fileID: -2740290441555968558, guid: e53e90f1155f8cd469abf4c71f6c5e95,
      type: 3}
  - m_RefCount: 1
    m_Data: {fileID: 7149751655148466542, guid: e53e90f1155f8cd469abf4c71f6c5e95,
      type: 3}
  - m_RefCount: 1
    m_Data: {fileID: -7655527456229970072, guid: e53e90f1155f8cd469abf4c71f6c5e95,
      type: 3}
  - m_RefCount: 1
    m_Data: {fileID: -1984912068192422301, guid: e53e90f1155f8cd469abf4c71f6c5e95,
      type: 3}
  - m_RefCount: 1
    m_Data: {fileID: -277465505295718648, guid: e53e90f1155f8cd469abf4c71f6c5e95,
      type: 3}
  - m_RefCount: 1
    m_Data: {fileID: 9222073198021860894, guid: e53e90f1155f8cd469abf4c71f6c5e95,
      type: 3}
  - m_RefCount: 1
    m_Data: {fileID: 3991568953898065832, guid: e53e90f1155f8cd469abf4c71f6c5e95,
      type: 3}
  - m_RefCount: 1
    m_Data: {fileID: 2673405975860536578, guid: e53e90f1155f8cd469abf4c71f6c5e95,
      type: 3}
  - m_RefCount: 1
    m_Data: {fileID: 6886954874036816709, guid: e53e90f1155f8cd469abf4c71f6c5e95,
      type: 3}
  - m_RefCount: 1
    m_Data: {fileID: -8209864517686610857, guid: e53e90f1155f8cd469abf4c71f6c5e95,
      type: 3}
  - m_RefCount: 1
    m_Data: {fileID: 8664258913517867861, guid: e53e90f1155f8cd469abf4c71f6c5e95,
      type: 3}
  - m_RefCount: 1
    m_Data: {fileID: -1544587663037173727, guid: e53e90f1155f8cd469abf4c71f6c5e95,
      type: 3}
  - m_RefCount: 1
    m_Data: {fileID: -791584091045098441, guid: e53e90f1155f8cd469abf4c71f6c5e95,
      type: 3}
  - m_RefCount: 1
    m_Data: {fileID: 3067914300574464226, guid: e53e90f1155f8cd469abf4c71f6c5e95,
      type: 3}
  - m_RefCount: 1
    m_Data: {fileID: -4676164812573971036, guid: e53e90f1155f8cd469abf4c71f6c5e95,
      type: 3}
  - m_RefCount: 1
    m_Data: {fileID: 9202675663719084700, guid: e53e90f1155f8cd469abf4c71f6c5e95,
      type: 3}
  - m_RefCount: 1
    m_Data: {fileID: -9171300325430576412, guid: e53e90f1155f8cd469abf4c71f6c5e95,
      type: 3}
  - m_RefCount: 1
    m_Data: {fileID: 3566556839041133005, guid: e53e90f1155f8cd469abf4c71f6c5e95,
      type: 3}
  - m_RefCount: 1
    m_Data: {fileID: -7310149853424508889, guid: e53e90f1155f8cd469abf4c71f6c5e95,
      type: 3}
  - m_RefCount: 1
    m_Data: {fileID: -7121190010884487741, guid: e53e90f1155f8cd469abf4c71f6c5e95,
      type: 3}
  - m_RefCount: 1
    m_Data: {fileID: 21300000, guid: f79882f6d0651fe4ea92b2a889f628bb, type: 3}
  - m_RefCount: 1
    m_Data: {fileID: 21300000, guid: b69554fda46af624a8951f96e6f6c17c, type: 3}
  - m_RefCount: 1
    m_Data: {fileID: 21300000, guid: a260582f938233d49a933e9a0a9b84bc, type: 3}
  - m_RefCount: 1
    m_Data: {fileID: 21300000, guid: 3bcc6fb68bf9d0949bea65a2e5663f96, type: 3}
  - m_RefCount: 1
    m_Data: {fileID: 21300000, guid: 84dbd18cbf052684a8ca8ae0d6726aba, type: 3}
  - m_RefCount: 1
    m_Data: {fileID: 21300000, guid: 1e802b47bfea50a47acf5f3b7ba3b16f, type: 3}
  - m_RefCount: 1
    m_Data: {fileID: 21300000, guid: a5b312117a0528c49b06fa3a96dfe236, type: 3}
  - m_RefCount: 1
    m_Data: {fileID: 21300000, guid: e97fac510976a104ca32fd2bd632ff91, type: 3}
  - m_RefCount: 1
    m_Data: {fileID: 21300000, guid: e74505abbd87d2940857da5004ef9bcc, type: 3}
  - m_RefCount: 1
    m_Data: {fileID: 21300000, guid: 8850c8a40338c844ca8c39077744bd1c, type: 3}
  - m_RefCount: 1
    m_Data: {fileID: 21300000, guid: d13bb2383d774344f8586871dde5811f, type: 3}
  - m_RefCount: 1
    m_Data: {fileID: 21300000, guid: 680ee6c7813178c4ab779c801a23c814, type: 3}
  - m_RefCount: 1
    m_Data: {fileID: 21300000, guid: 9ea98cc38166f1841bd685d98a80eaf0, type: 3}
  - m_RefCount: 1
    m_Data: {fileID: 21300000, guid: 83c48acc044031b4586cd3a220adf2bc, type: 3}
  - m_RefCount: 1
    m_Data: {fileID: 21300000, guid: 18bc0a66b0a09fb42b5f2526223fd314, type: 3}
  - m_RefCount: 1
    m_Data: {fileID: 21300000, guid: cf8a41b3b2873ce40b14669e46079cae, type: 3}
  - m_RefCount: 1
    m_Data: {fileID: 1862278868194729282, guid: e7fea52e0dc748645aa994f403b41a7e,
      type: 3}
  m_TileMatrixArray:
  - m_RefCount: 41
    m_Data:
      e00: 1
      e01: 0
      e02: 0
      e03: 0
      e10: 0
      e11: 1
      e12: 0
      e13: 0
      e20: 0
      e21: 0
      e22: 1
      e23: 0
      e30: 0
      e31: 0
      e32: 0
      e33: 1
  m_TileColorArray:
  - m_RefCount: 41
    m_Data: {r: 1, g: 1, b: 1, a: 1}
  m_TileObjectToInstantiateArray: []
  m_AnimationFrameRate: 1
  m_Color: {r: 1, g: 1, b: 1, a: 1}
  m_Origin: {x: 0, y: -7, z: 0}
  m_Size: {x: 9, y: 8, z: 1}
  m_TileAnchor: {x: 0.5, y: 0.5, z: 0}
  m_TileOrientation: 0
  m_TileOrientationMatrix:
    e00: 1
    e01: 0
    e02: 0
    e03: 0
    e10: 0
    e11: 1
    e12: 0
    e13: 0
    e20: 0
    e21: 0
    e22: 1
    e23: 0
    e30: 0
    e31: 0
    e32: 0
    e33: 1
--- !u!483693784 &4035712504236701876
TilemapRenderer:
  m_ObjectHideFlags: 0
  m_CorrespondingSourceObject: {fileID: 0}
  m_PrefabInstance: {fileID: 0}
  m_PrefabAsset: {fileID: 0}
  m_GameObject: {fileID: 2285368583588432590}
  m_Enabled: 0
  m_CastShadows: 0
  m_ReceiveShadows: 0
  m_DynamicOccludee: 0
  m_MotionVectors: 1
  m_LightProbeUsage: 0
  m_ReflectionProbeUsage: 0
  m_RayTracingMode: 0
  m_RenderingLayerMask: 1
  m_RendererPriority: 0
  m_Materials:
  - {fileID: 10754, guid: 0000000000000000f000000000000000, type: 0}
  m_StaticBatchInfo:
    firstSubMesh: 0
    subMeshCount: 0
  m_StaticBatchRoot: {fileID: 0}
  m_ProbeAnchor: {fileID: 0}
  m_LightProbeVolumeOverride: {fileID: 0}
  m_ScaleInLightmap: 1
  m_ReceiveGI: 1
  m_PreserveUVs: 0
  m_IgnoreNormalsForChartDetection: 0
  m_ImportantGI: 0
  m_StitchLightmapSeams: 1
  m_SelectedEditorRenderState: 0
  m_MinimumChartSize: 4
  m_AutoUVMaxDistance: 0.5
  m_AutoUVMaxAngle: 89
  m_LightmapParameters: {fileID: 0}
  m_SortingLayerID: 0
  m_SortingLayer: 0
  m_SortingOrder: 0
  m_ChunkSize: {x: 32, y: 32, z: 32}
  m_ChunkCullingBounds: {x: 0.0037878752, y: 0.0037878752, z: 0}
  m_MaxChunkCount: 16
  m_MaxFrameAge: 16
  m_SortOrder: 0
  m_Mode: 0
  m_DetectChunkCullingBounds: 0
  m_MaskInteraction: 0
--- !u!1 &4653657732090119968
GameObject:
  m_ObjectHideFlags: 0
  m_CorrespondingSourceObject: {fileID: 0}
  m_PrefabInstance: {fileID: 0}
  m_PrefabAsset: {fileID: 0}
  serializedVersion: 6
  m_Component:
  - component: {fileID: 4834313181867413224}
  - component: {fileID: 3037430379962437365}
  m_Layer: 31
  m_Name: Water
  m_TagString: Untagged
  m_Icon: {fileID: 0}
  m_NavMeshLayer: 0
  m_StaticEditorFlags: 0
  m_IsActive: 1
--- !u!4 &4834313181867413224
Transform:
  m_ObjectHideFlags: 0
  m_CorrespondingSourceObject: {fileID: 0}
  m_PrefabInstance: {fileID: 0}
  m_PrefabAsset: {fileID: 0}
  m_GameObject: {fileID: 4653657732090119968}
  m_LocalRotation: {x: 0, y: 0, z: 0, w: 1}
  m_LocalPosition: {x: 0, y: 0, z: 0}
  m_LocalScale: {x: 1, y: 1, z: 1}
  m_Children:
  - {fileID: 6909432235095184045}
  m_Father: {fileID: 0}
  m_RootOrder: 0
  m_LocalEulerAnglesHint: {x: 0, y: 0, z: 0}
--- !u!156049354 &3037430379962437365
Grid:
  m_ObjectHideFlags: 0
  m_CorrespondingSourceObject: {fileID: 0}
  m_PrefabInstance: {fileID: 0}
  m_PrefabAsset: {fileID: 0}
  m_GameObject: {fileID: 4653657732090119968}
  m_Enabled: 1
  m_CellSize: {x: 1.0075758, y: 1.0075758, z: 0}
  m_CellGap: {x: 0, y: 0, z: 0}
  m_CellLayout: 0
  m_CellSwizzle: 0
--- !u!114 &-2037043661606416224
MonoBehaviour:
  m_ObjectHideFlags: 0
  m_CorrespondingSourceObject: {fileID: 0}
  m_PrefabInstance: {fileID: 0}
  m_PrefabAsset: {fileID: 0}
  m_GameObject: {fileID: 0}
  m_Enabled: 1
  m_EditorHideFlags: 0
  m_Script: {fileID: 12395, guid: 0000000000000000e000000000000000, type: 0}
  m_Name: Palette Settings
  m_EditorClassIdentifier: 
  cellSizing: 0
